<?xml version="1.0" encoding="utf-8"?>
<!-- Generator: Adobe Illustrator 23.0.1, SVG Export Plug-In . SVG Version: 6.00 Build 0)  -->
<svg version="1.1" id="Layer_1" xmlns="http://www.w3.org/2000/svg" xmlns:xlink="http://www.w3.org/1999/xlink" x="0px" y="0px"
	 viewBox="0 0 1024 1024" style="enable-background:new 0 0 1024 1024;" xml:space="preserve">
<style type="text/css">
	.st0{fill:url(#SVGID_1_);}
	.st1{fill:#FFFFFF;}
	.st2{fill:none;}
</style>
<linearGradient id="SVGID_1_" gradientUnits="userSpaceOnUse" x1="0" y1="512" x2="1024" y2="512">
	<stop  offset="0" style="stop-color:#E75339"/>
	<stop  offset="1" style="stop-color:#DC2575"/>
</linearGradient>
<rect class="st0" width="1024" height="1024"/>
<g>
	<path class="st1" d="M336.4,546.2c-7.1,10.8-13.6,20.6-20.1,30.3c-6.7,10.2-13.3,20.5-20.2,30.5c-5.7,8.4-14.1,12-24,10.6
		c-9.9-1.4-16.9-7-20.3-16.7c-2.8-8-1.5-15.5,3.1-22.5c21.9-33.2,43.8-66.4,65.7-99.6c13.9-21.1,27.7-42.4,41.8-63.4
		c29-43.1,69.4-68.8,120.6-76.8c89.1-13.9,175.7,44.9,196,132.5c0.4,1.5,0.9,3,1.6,5.4c1.4-1.9,2.4-3.1,3.3-4.4
		c14.5-22,29-44,43.6-66c5.6-8.4,13.8-12.4,23.8-11.2c10.3,1.2,17.5,7,21,17c2.8,8.1,1.3,15.5-3.3,22.5c-19.3,29.3-38.7,58.7-58,88
		c-15.5,23.5-31.4,46.7-46.3,70.6c-9.8,15.7-19.8,31.2-33.2,44.1c-26.7,25.8-58.3,41.9-95,47.7c-89.3,14.3-171-40.8-195.4-121.8
		C339.5,558,338.1,552.7,336.4,546.2z M508.9,387.1c-65.6-0.8-125.2,52-125.4,124.5c-0.1,74.1,59.9,125.7,124.9,125.6
		c69.1-0.1,125.6-56,125.4-124.7C633.7,438.5,572.8,386.2,508.9,387.1z"/>
	<path class="st1" d="M812.4,369.4c0.1,14.9-11.7,26.7-26.5,26.7c-14.7,0-26.3-11.5-26.4-26.3c-0.1-15,11.4-26.9,26.2-26.9
		C800.5,342.8,812.3,354.5,812.4,369.4z"/>
	<path class="st1" d="M264.3,643.3c0.1,14.9-11.2,26.5-26,26.5c-14.9,0-26.3-11.3-26.6-26c-0.3-12.1,8.5-26.4,26.4-26.9
		C252.6,616.4,264.2,628.6,264.3,643.3z"/>
	<path class="st2" d="M508.9,387.1c63.9-0.9,124.8,51.3,125,125.5c0.1,68.7-56.3,124.6-125.4,124.7c-65,0.1-125-51.6-124.9-125.6
		C383.6,439.1,443.2,386.3,508.9,387.1z"/>
</g>
</svg>
